{
  "IsRegenerate": false,
  "MenuPosition": "main",
  "RelativeNamespace": "Channels",
  "EntityName": "Channel",
  "EntityNamePlural": "Channels",
  "TableName": "Channels",
  "PrimaryKeyType": "Guid",
  "BaseClass": "FullAuditedEntity",
  "EntityHistory": true,
  "AutoMigration": true,
  "UpdateDatabase": true,
  "CreateUserInterface": true,
  "CreateViewOnly": false,
  "CreateExcelExport": false,
  "PagePermission": {
    "Host": false,
    "Tenant": false
  },
  "Properties": [
    {
      "Name": "Name",
      "Type": "string",
      "MaxLength": 200,
      "MinLength": 2,
      "Range": {
        "IsRangeSet": false,
        "MinimumValue": 0,
        "MaximumValue": 0
      },
      "Required": true,
      "Nullable": false,
      "Regex": "",
      "UserInterface": {
        "AdvancedFilter": true,
        "List": true,
        "CreateOrUpdate": true
      }
    },
    {
      "Name": "Description",
      "Type": "string",
      "MaxLength": -1,
      "MinLength": -1,
      "Range": {
        "IsRangeSet": false,
        "MinimumValue": 0,
        "MaximumValue": 0
      },
      "Required": false,
      "Nullable": false,
      "Regex": "",
      "UserInterface": {
        "AdvancedFilter": false,
        "List": false,
        "CreateOrUpdate": true
      }
    }
  ],
  "NavigationProperties": [],
  "EnumDefinitions": []
}