{
  "IsRegenerate": false,
  "MenuPosition": "main",
  "RelativeNamespace": "PayloadProperties",
  "EntityName": "PayloadProperty",
  "EntityNamePlural": "PayloadProperties",
  "TableName": "PayloadProperties",
  "PrimaryKeyType": "Guid",
  "BaseClass": "FullAuditedEntity",
  "EntityHistory": true,
  "AutoMigration": true,
  "UpdateDatabase": true,
  "CreateUserInterface": true,
  "CreateViewOnly": true,
  "CreateExcelExport": true,
  "PagePermission": {
    "Host": false,
    "Tenant": false
  },
  "Properties": [
    {
      "Name": "Name",
      "Type": "string",
      "MaxLength": 200,
      "MinLength": 2,
      "Range": {
        "IsRangeSet": false,
        "MinimumValue": 0,
        "MaximumValue": 0
      },
      "Required": false,
      "Nullable": false,
      "Regex": "",
      "UserInterface": {
        "AdvancedFilter": true,
        "List": true,
        "CreateOrUpdate": true
      }
    },
    {
      "Name": "DataType",
      "Type": "DataTypes",
      "MaxLength": 0,
      "MinLength": 0,
      "Range": {
        "IsRangeSet": false,
        "MinimumValue": 0,
        "MaximumValue": 0
      },
      "Required": false,
      "Nullable": false,
      "Regex": "",
      "UserInterface": {
        "AdvancedFilter": true,
        "List": true,
        "CreateOrUpdate": true
      }
    },
    {
      "Name": "Description",
      "Type": "string",
      "MaxLength": -1,
      "MinLength": -1,
      "Range": {
        "IsRangeSet": false,
        "MinimumValue": 0,
        "MaximumValue": 0
      },
      "Required": false,
      "Nullable": false,
      "Regex": "",
      "UserInterface": {
        "AdvancedFilter": false,
        "List": false,
        "CreateOrUpdate": true
      }
    }
  ],
  "NavigationProperties": [
    {
      "Namespace": "Test.Payloads",
      "ForeignEntityName": "Payload",
      "IdType": "Guid",
      "IsNullable": false,
      "PropertyName": "PayloadId",
      "DisplayPropertyName": "Name",
      "DuplicationNumber": 0,
      "RelationType": "single"
    }
  ],
  "EnumDefinitions": [
    {
      "Name": "DataTypes",
      "Namespace": "Test",
      "EnumProperties": [
        {
          "Name": "String",
          "Value": 0
        },
        {
          "Name": "Integer",
          "Value": 1
        },
        {
          "Name": "Decimal",
          "Value": 2
        },
        {
          "Name": "DateTime",
          "Value": 3
        }
      ]
    }
  ]
}