{
  "IsRegenerate": false,
  "MenuPosition": "main",
  "RelativeNamespace": "RuleEscalations",
  "EntityName": "RuleEscalation",
  "EntityNamePlural": "RuleEscalations",
  "TableName": "RuleEscalations",
  "PrimaryKeyType": "Guid",
  "BaseClass": "FullAuditedEntity",
  "EntityHistory": true,
  "AutoMigration": true,
  "UpdateDatabase": true,
  "CreateUserInterface": true,
  "CreateViewOnly": true,
  "CreateExcelExport": true,
  "PagePermission": {
    "Host": false,
    "Tenant": false
  },
  "Properties": [],
  "NavigationProperties": [
    {
      "Namespace": "Test.Rules",
      "ForeignEntityName": "Rule",
      "IdType": "Guid",
      "IsNullable": false,
      "PropertyName": "RuleId",
      "DisplayPropertyName": "Name",
      "DuplicationNumber": 0,
      "RelationType": "single"
    },
    {
      "Namespace": "Test.Authorization.Users",
      "ForeignEntityName": "User",
      "IdType": "long",
      "IsNullable": false,
      "PropertyName": "UserId",
      "DisplayPropertyName": "Name",
      "DuplicationNumber": 0,
      "RelationType": "single"
    }
  ],
  "EnumDefinitions": []
}