{
  "IsRegenerate": false,
  "MenuPosition": "main",
  "RelativeNamespace": "Rules",
  "EntityName": "Rule",
  "EntityNamePlural": "Rules",
  "TableName": "Rules",
  "PrimaryKeyType": "Guid",
  "BaseClass": "FullAuditedEntity",
  "EntityHistory": true,
  "AutoMigration": true,
  "UpdateDatabase": true,
  "CreateUserInterface": true,
  "CreateViewOnly": true,
  "CreateExcelExport": true,
  "PagePermission": {
    "Host": false,
    "Tenant": false
  },
  "Properties": [
    {
      "Name": "Name",
      "Type": "string",
      "MaxLength": 200,
      "MinLength": 2,
      "Range": {
        "IsRangeSet": false,
        "MinimumValue": 0,
        "MaximumValue": 0
      },
      "Required": true,
      "Nullable": false,
      "Regex": "",
      "UserInterface": {
        "AdvancedFilter": true,
        "List": true,
        "CreateOrUpdate": true
      }
    },
    {
      "Name": "Description",
      "Type": "string",
      "MaxLength": -1,
      "MinLength": -1,
      "Range": {
        "IsRangeSet": false,
        "MinimumValue": 0,
        "MaximumValue": 0
      },
      "Required": false,
      "Nullable": false,
      "Regex": "",
      "UserInterface": {
        "AdvancedFilter": false,
        "List": false,
        "CreateOrUpdate": true
      }
    },
    {
      "Name": "Severity",
      "Type": "Severity",
      "MaxLength": 0,
      "MinLength": 0,
      "Range": {
        "IsRangeSet": false,
        "MinimumValue": 0,
        "MaximumValue": 0
      },
      "Required": false,
      "Nullable": false,
      "Regex": "",
      "UserInterface": {
        "AdvancedFilter": true,
        "List": true,
        "CreateOrUpdate": true
      }
    },
    {
      "Name": "Action",
      "Type": "Actions",
      "MaxLength": 0,
      "MinLength": 0,
      "Range": {
        "IsRangeSet": false,
        "MinimumValue": 0,
        "MaximumValue": 0
      },
      "Required": false,
      "Nullable": false,
      "Regex": "",
      "UserInterface": {
        "AdvancedFilter": true,
        "List": true,
        "CreateOrUpdate": true
      }
    }
  ],
  "NavigationProperties": [
    {
      "Namespace": "Test.TransactionTypes",
      "ForeignEntityName": "TransactionType",
      "IdType": "Guid",
      "IsNullable": true,
      "PropertyName": "TransactionTypeId",
      "DisplayPropertyName": "Name",
      "DuplicationNumber": 0,
      "RelationType": "single"
    }
  ],
  "EnumDefinitions": [
    {
      "Name": "Severity",
      "Namespace": "Test",
      "EnumProperties": [
        {
          "Name": "Low",
          "Value": 0
        },
        {
          "Name": "Medium",
          "Value": 1
        },
        {
          "Name": "High",
          "Value": 2
        }
      ]
    },
    {
      "Name": "Actions",
      "Namespace": "Test",
      "EnumProperties": [
        {
          "Name": "Stop",
          "Value": 0
        },
        {
          "Name": "Escalate",
          "Value": 1
        },
        {
          "Name": "Authorization",
          "Value": 2
        }
      ]
    }
  ]
}