{
  "IsRegenerate": false,
  "MenuPosition": "main",
  "RelativeNamespace": "Whitelists",
  "EntityName": "Whitelist",
  "EntityNamePlural": "Whitelists",
  "TableName": "Whitelists",
  "PrimaryKeyType": "Guid",
  "BaseClass": "FullAuditedEntity",
  "EntityHistory": true,
  "AutoMigration": true,
  "UpdateDatabase": true,
  "CreateUserInterface": true,
  "CreateViewOnly": true,
  "CreateExcelExport": true,
  "PagePermission": {
    "Host": false,
    "Tenant": false
  },
  "Properties": [
    {
      "Name": "AccountNumber",
      "Type": "string",
      "MaxLength": 10,
      "MinLength": 10,
      "Range": {
        "IsRangeSet": false,
        "MinimumValue": 0,
        "MaximumValue": 0
      },
      "Required": true,
      "Nullable": false,
      "Regex": "",
      "UserInterface": {
        "AdvancedFilter": true,
        "List": true,
        "CreateOrUpdate": true
      }
    },
    {
      "Name": "AccountName",
      "Type": "string",
      "MaxLength": -1,
      "MinLength": -1,
      "Range": {
        "IsRangeSet": false,
        "MinimumValue": 0,
        "MaximumValue": 0
      },
      "Required": false,
      "Nullable": false,
      "Regex": "",
      "UserInterface": {
        "AdvancedFilter": false,
        "List": true,
        "CreateOrUpdate": true
      }
    },
    {
      "Name": "Description",
      "Type": "string",
      "MaxLength": -1,
      "MinLength": -1,
      "Range": {
        "IsRangeSet": false,
        "MinimumValue": 0,
        "MaximumValue": 0
      },
      "Required": false,
      "Nullable": false,
      "Regex": "",
      "UserInterface": {
        "AdvancedFilter": false,
        "List": true,
        "CreateOrUpdate": true
      }
    },
    {
      "Name": "ApprovalDate",
      "Type": "DateTime",
      "MaxLength": 0,
      "MinLength": 0,
      "Range": {
        "IsRangeSet": false,
        "MinimumValue": 0,
        "MaximumValue": 0
      },
      "Required": false,
      "Nullable": true,
      "Regex": "",
      "UserInterface": {
        "AdvancedFilter": false,
        "List": true,
        "CreateOrUpdate": true
      }
    }
  ],
  "NavigationProperties": [
    {
      "Namespace": "Test.TransactionTypes",
      "ForeignEntityName": "TransactionType",
      "IdType": "Guid",
      "IsNullable": false,
      "PropertyName": "TransactionTypeId",
      "DisplayPropertyName": "Name",
      "DuplicationNumber": 0,
      "RelationType": "single"
    },
    {
      "Namespace": "Test.Authorization.Users",
      "ForeignEntityName": "User",
      "IdType": "long",
      "IsNullable": true,
      "PropertyName": "ApproverUserId",
      "DisplayPropertyName": "Name",
      "DuplicationNumber": 0,
      "RelationType": "single"
    }
  ],
  "EnumDefinitions": []
}